…
```r
datastr %>% 
  group_by(year, location, replicate, treat_plot) %>% 
  count()
```

```
## # A tibble: 288 x 5
## # Groups: year, location, replicate, treat_plot [288]
##    year  location replicate treat_plot     n
##    <fct> <fct>    <fct>     <fct>      <int>
##  1 2015  HM       A         1              3
##  2 2015  HM       A         2              3
##  3 2015  HM       A         3              3
##  4 2015  HM       A         4              3
##  5 2015  HM       A         5              3
##  6 2015  HM       A         6              3
##  7 2015  HM       A         7              3
##  8 2015  HM       A         8              3
##  9 2015  HM       B         1              3
## 10 2015  HM       B         2              3
## # ... with 278 more rows
```


```r
datastr %>% 
  group_by(year, location, treat_plot) %>% 
  count()
```

```
## # A tibble: 96 x 4
## # Groups: year, location, treat_plot [96]
##    year  location treat_plot     n
##    <fct> <fct>    <fct>      <int>
##  1 2015  HM       1              9
##  2 2015  HM       2              9
##  3 2015  HM       3              9
##  4 2015  HM       4              9
##  5 2015  HM       5              9
##  6 2015  HM       6              9
##  7 2015  HM       7              9
##  8 2015  HM       8              9
##  9 2015  HP       1              9
## 10 2015  HP       2              9
## # ... with 86 more rows
```
…
